[
  {
    "name": "RT0011",
    "series": [
      { "name": "Jan", "value": 7300000  },
      { "name": "Feb", "value": 7940000  },
      { "name": "Mar", "value": 7340000  },
      { "name": "Apr", "value": 7440000  },
      { "name": "May", "value": 7540000  },
      { "name": "Jun", "value": 7340000  },
      { "name": "July", "value": 7440000  },
      { "name": "Aug", "value": 7540000  },
      { "name": "Sep", "value": 7740000  },
      { "name": "Oct", "value": 7940000  },
      { "name": "Nov", "value": 7240000  },
      { "name": "Dec", "value": 7990000  }

    ]
  },
  {
    "name": "RT0012",
    "series": [
      { "name": "Jan", "value": 8300000  },
      { "name": "Feb", "value": 8940000  },
      { "name": "Mar", "value": 8340000  },
      { "name": "Apr", "value": 8440000  },
      { "name": "May", "value": 8540000  },
      { "name": "Jun", "value": 8340000  },
      { "name": "July", "value": 8440000  },
      { "name": "Aug", "value": 8540000  },
      { "name": "Sep", "value": 8740000  },
      { "name": "Oct", "value": 8940000  },
      { "name": "Nov", "value": 8240000  },
      { "name": "Dec", "value": 8990000  }

    ]
  }
]
