{
  "items":[
    {"retailitemnumber":"RT0011","description":"KLST LOAF BREAD","retailitemid":1011},
    {"retailitemnumber":"RT0012","description":"KLST HALF LOAF BREAD","retailitemid":1012},
    {"retailitemnumber":"ST0011","description":"WLT LOAF WHEAT BREAD","retailitemid":2011},
    {"retailitemnumber":"ST0012","description":"WLT HALF LOAF WHEAT BREAD","retailitemid":2012},
    {"retailitemnumber":"BT0011","description":"PEANUT SALTED BUTTER","retailitemid":3011},
    {"retailitemnumber":"FT0011","description":"MIX FRUIT JAM","retailitemid":4011}
  ]
}
