<svg id="Add" xmlns="http://www.w3.org/2000/svg" width="30" height="30" viewBox="0 0 30 30">
  <defs>
    <style>
      .cls-1 {
        fill: #777677;
        fill-rule: evenodd;
      }
    </style>
  </defs>
  <path class="cls-1" d="M15,30A15,15,0,1,1,30,15,15,15,0,0,1,15,30ZM15,1A14,14,0,1,0,29,15,14,14,0,0,0,15,1Z"/>
  <path class="cls-1" d="M24,16H16v8H14V16H6V14h8V6h2v8h8v2Z"/>
</svg>
