<svg id="Remove" xmlns="http://www.w3.org/2000/svg" width="30" height="30" viewBox="0 0 30 30">
  <defs>
    <style>
      .cls-1 {
        fill: #777677;
        fill-rule: evenodd;
      }
    </style>
  </defs>
  <path class="cls-1" d="M15,30A15,15,0,1,1,30,15,15,15,0,0,1,15,30ZM15,1A14,14,0,1,0,29,15,14,14,0,0,0,15,1Z"/>
  <path class="cls-1" d="M22.071,20.657l-1.414,1.414L15,16.414,9.343,22.071,7.929,20.657,13.586,15,7.929,9.343,9.343,7.929,15,13.586l5.657-5.657,1.414,1.414L16.414,15Z"/>
</svg>
