{
  "VendorData": {
    "Vendors": [
      {
        "number": 613,
        "type": "Basic"
      },
      {
        "number": 475,
        "type": "Advanced"
      }
    ],
    
      "count": 1088
  }

}
